Division,WeightClassKg,Place,Name,Team,BodyweightKg,Best3SquatKg,Best3BenchKg,Best3DeadliftKg,TotalKg,Equipment,Event,Sex,BirthDate
Boys,51.71,1,Jaxon Black,Pollok Central,50.17,117.93,79.38,136.08,333.39,Unlimited,SBD,M,
Boys,51.71,2,Donoven Mendoza,Conroe Grand Oaks,51.71,113.4,72.57,115.67,301.64,Unlimited,SBD,M,
Boys,51.71,3,Marcelo Correa,Conroe The Woodlands,50.71,92.99,74.84,113.4,281.23,Unlimited,SBD,M,
Boys,51.71,4,Matthew Jug,Conroe Oak Ridge,50.8,106.59,61.23,113.4,281.23,Unlimited,SBD,M,
Boys,51.71,5,Logan Ha,Conroe The Woodlands,51.35,90.72,52.16,113.4,256.28,Unlimited,SBD,M,
Boys,51.71,DQ,Daniel Wetz,Conroe Caney Creek,51.21,133.81,,,,Unlimited,SBD,M,
Boys,55.79,1,Bryce Wiley,Conroe The Woodlands,55.11,183.7,106.59,206.38,496.68,Unlimited,SBD,M,
Boys,55.79,2,Carmine Normand,Conroe Grand Oaks,55.25,142.88,92.99,145.15,381.02,Unlimited,SBD,M,
Boys,55.79,3,Johnathan Miller,Willis,54.93,142.88,79.38,154.22,376.48,Unlimited,SBD,M,
Boys,55.79,4,Ander Herrasti,Conroe The Woodlands,54.75,136.08,90.72,147.42,374.21,Unlimited,SBD,M,
Boys,55.79,5,Willie Castro,Conroe Caney Creek,55.7,151.95,72.57,145.15,369.68,Unlimited,SBD,M,
Boys,55.79,6,Caleb Norton,Pollok Central,52.8,136.08,95.25,129.27,360.61,Unlimited,SBD,M,
Boys,55.79,7,Landon Arnold,Conroe The Woodlands,55.61,124.74,86.18,147.42,358.34,Unlimited,SBD,M,
Boys,55.79,8,Paxton Dixon,Conroe Woodlands College Park,55.16,111.13,79.38,133.81,324.32,Unlimited,SBD,M,
Boys,55.79,DQ,Erik Sanchez,Conroe,55.47,,,,,Unlimited,SBD,M,
Boys,59.87,1,Tank Nguyen,Conroe,59.74,217.72,120.2,213.19,551.11,Unlimited,SBD,M,
Boys,59.87,2,Adahir Landeros,Conroe,59.51,170.1,97.52,154.22,421.84,Unlimited,SBD,M,
Boys,59.87,3,Ken Hoang,New Caney West Fork,59.87,158.76,83.91,145.15,387.82,Unlimited,SBD,M,
Boys,59.87,4,Terrence Mullins,New Caney West Fork,58.38,117.93,81.65,149.69,349.27,Unlimited,SBD,M,
Boys,59.87,5,Xavier Mendoza,Conroe Grand Oaks,56.29,124.74,90.72,129.27,344.73,Unlimited,SBD,M,
Boys,67.13,1,Macoy Noack,Conroe The Woodlands,66.09,240.4,149.69,204.12,594.21,Unlimited,SBD,M,
Boys,67.13,2,Riley Fougeron,Conroe Woodlands College Park,65.91,215.46,145.15,222.26,582.87,Unlimited,SBD,M,
Boys,67.13,3,Caleb Henderson,Conroe Oak Ridge,66.9,213.19,156.49,192.78,562.45,Unlimited,SBD,M,
Boys,67.13,4,Jason Kimberly,Montgomery,66.22,199.58,120.2,224.53,544.31,Unlimited,SBD,M,
Boys,67.13,5,Ethan Gigliotta,Montgomery,66.77,217.72,120.2,204.12,542.04,Unlimited,SBD,M,
Boys,67.13,6,Tyler Plumley,Conroe,65.95,208.65,124.74,197.31,530.7,Unlimited,SBD,M,
Boys,67.13,7,Kason Henry,Conroe The Woodlands,61.87,183.7,113.4,206.38,503.49,Unlimited,SBD,M,
Boys,67.13,8,Santi Guerrero,Conroe The Woodlands,60.37,197.31,122.47,174.63,494.42,Unlimited,SBD,M,
Boys,67.13,9,Steven Lozano,Conroe Grand Oaks,66,170.1,115.67,197.31,483.08,Unlimited,SBD,M,
Boys,67.13,10,Collyn Smith,Willis,66.22,170.1,113.4,158.76,442.25,Unlimited,SBD,M,
Boys,67.13,11,Junior Castro,Conroe Caney Creek,65.18,154.22,86.18,158.76,399.16,Unlimited,SBD,M,
Boys,67.13,12,Josue Cardona,Conroe Caney Creek,62.6,136.08,83.91,154.22,374.21,Unlimited,SBD,M,
Boys,67.13,13,Felipe Ramirez,Montgomery Lake Creek,61.64,122.47,74.84,165.56,362.87,Unlimited,SBD,M,
Boys,67.13,14,Francisco Roman,Conroe Woodlands College Park,60.96,113.4,77.11,138.35,328.85,Unlimited,SBD,M,
Boys,74.84,1,Alex Hunt,Conroe Woodlands College Park,71.71,247.21,174.63,233.6,655.44,Unlimited,SBD,M,
Boys,74.84,2,Colton Olsen,Conroe Oak Ridge,74.62,258.55,151.95,231.33,641.83,Unlimited,SBD,M,
Boys,74.84,3,Kalen Chometsky,Conroe The Woodlands,72.62,263.08,156.49,215.46,635.03,Unlimited,SBD,M,
Boys,74.84,4,Adam Dean,Pollok Central,72.71,244.94,154.22,226.8,625.96,Unlimited,SBD,M,
Boys,74.84,5,Kaden McMilan,Montgomery,70.72,219.99,165.56,208.65,594.21,Unlimited,SBD,M,
Boys,74.84,6,Bryce Moore,Conroe Grand Oaks,74.8,233.6,117.93,238.14,589.67,Unlimited,SBD,M,
Boys,74.84,7,Enzo Altamirano,Conroe,67.27,208.65,136.08,208.65,553.38,Unlimited,SBD,M,
Boys,74.84,8,Braydn Fowler,Pollok Central,73.21,192.78,131.54,188.24,512.56,Unlimited,SBD,M,
Boys,74.84,9,Urban Woodrome,Conroe,70.58,206.38,108.86,192.78,508.02,Unlimited,SBD,M,
Boys,74.84,10,Evann Phillips,Conroe Grand Oaks,73.03,192.78,120.2,192.78,505.76,Unlimited,SBD,M,
Boys,74.84,11,Caysen Davis,Montgomery Lake Creek,71.85,199.58,127.01,170.1,496.68,Unlimited,SBD,M,
Boys,74.84,12,Nathan Matthews,Pollok Central,70.26,172.37,122.47,190.51,485.34,Unlimited,SBD,M,
Boys,74.84,13,Clay Bailey,Montgomery Lake Creek,72.94,183.7,106.59,183.7,474,Unlimited,SBD,M,
Boys,74.84,14,Kaiden Rome,Montgomery Lake Creek,71.4,158.76,104.33,195.04,458.13,Unlimited,SBD,M,
Boys,74.84,15,Wyatt Alexander,Pollok Central,72.44,183.7,97.52,142.88,424.11,Unlimited,SBD,M,
Boys,74.84,16,Josiah Miguel,Conroe Caney Creek,74.48,142.88,102.06,158.76,403.7,Unlimited,SBD,M,
Boys,74.84,17,Kylin Patin,New Caney West Fork,69.49,158.76,106.59,136.08,401.43,Unlimited,SBD,M,
Boys,74.84,18,Nathan Aaron,New Caney West Fork,71.58,145.15,104.33,151.95,401.43,Unlimited,SBD,M,
Boys,74.84,19,Rocky Sanchez,Houston Eisenhower,74.16,147.42,83.91,167.83,399.16,Unlimited,SBD,M,
Boys,74.84,20,Julius Martinez,New Caney West Fork,73.35,129.27,86.18,133.81,349.27,Unlimited,SBD,M,
Boys,74.84,DQ,Tim Williams,Conroe Caney Creek,73.35,161.03,,,,Unlimited,SBD,M,
Boys,82.1,1,Cayden Clayton,Conroe The Woodlands,80.92,299.37,179.17,260.82,739.36,Unlimited,SBD,M,
Boys,82.1,2,Jesse Rodgers,Conroe Grand Oaks,81.56,267.62,190.51,249.48,707.6,Unlimited,SBD,M,
Boys,82.1,3,Brooks Woodruff,Conroe The Woodlands,81.1,254.01,165.56,249.48,669.05,Unlimited,SBD,M,
Boys,82.1,4,Braden McEldowney,Conroe Grand Oaks,81.33,233.6,140.61,226.8,601.01,Unlimited,SBD,M,
Boys,82.1,5,Khalfani Taylor,Conroe Grand Oaks,80.97,217.72,120.2,235.87,573.79,Unlimited,SBD,M,
Boys,82.1,6,AJ Moreno,Conroe Oak Ridge,80.56,226.8,145.15,183.7,555.65,Unlimited,SBD,M,
Boys,82.1,7,Ty Youngblood,Conroe Woodlands College Park,79.61,222.26,158.76,170.1,551.11,Unlimited,SBD,M,
Boys,82.1,8,Blaise Olivanni,Montgomery,81.47,192.78,142.88,197.31,532.97,Unlimited,SBD,M,
Boys,82.1,9,Jayden King,Conroe Oak Ridge,80.42,158.76,106.59,215.46,480.81,Unlimited,SBD,M,
Boys,82.1,10,Luke Middlebrook,Montgomery Lake Creek,78.11,165.56,108.86,190.51,464.93,Unlimited,SBD,M,
Boys,82.1,11,Jayden Jackson,Houston Eisenhower,80.56,149.69,92.99,167.83,410.5,Unlimited,SBD,M,
Boys,82.1,12,Revan Cashon,Montgomery,77.66,151.95,102.06,142.88,396.89,Unlimited,SBD,M,
Boys,82.1,DQ,Azi Jefferson,Conroe,79.02,,,,,Unlimited,SBD,M,
Boys,82.1,DQ,Orlando Barrera,Conroe,80.33,249.48,,,,Unlimited,SBD,M,
Boys,82.1,DQ,Dario Lozano Flores,Willis,77.93,,,,,Unlimited,SBD,M,
Boys,89.81,1,Jacob Gober,Willis,82.24,294.84,204.12,258.55,757.5,Unlimited,SBD,M,
Boys,89.81,2,Zach Lunn,Conroe Grand Oaks,88.86,260.82,156.49,256.28,673.58,Unlimited,SBD,M,
Boys,89.81,3,Tait Knudsen,Conroe Woodlands College Park,86.09,263.08,145.15,229.06,637.3,Unlimited,SBD,M,
Boys,89.81,4,Keven Guerra,Willis,88.86,274.42,145.15,197.31,616.89,Unlimited,SBD,M,
Boys,89.81,5,Lawson Mann,Montgomery Lake Creek,88.99,235.87,149.69,226.8,612.35,Unlimited,SBD,M,
Boys,89.81,6,Clay Cassard,Conroe The Woodlands,88.9,219.99,147.42,226.8,594.21,Unlimited,SBD,M,
Boys,89.81,7,Andrew Sanchez,Conroe Caney Creek,88.9,226.8,133.81,204.12,564.72,Unlimited,SBD,M,
Boys,89.81,8,Kingsley Osili,Montgomery Lake Creek,89.81,215.46,129.27,204.12,548.85,Unlimited,SBD,M,
Boys,89.81,9,JaShon Witherspoon,New Caney West Fork,88.45,204.12,133.81,204.12,542.04,Unlimited,SBD,M,
Boys,89.81,10,Lee Barney,Montgomery Lake Creek,87.77,197.31,115.67,199.58,512.56,Unlimited,SBD,M,
Boys,89.81,11,Rigoberto Mato,Conroe Caney Creek,88.18,183.7,104.33,217.72,505.76,Unlimited,SBD,M,
Boys,89.81,12,David Troyer,Montgomery,88.45,183.7,138.35,170.1,492.15,Unlimited,SBD,M,
Boys,89.81,13,Nolan Carpenter,Montgomery Lake Creek,82.37,170.1,120.2,174.63,464.93,Unlimited,SBD,M,
Boys,89.81,DQ,Carter Knight,Montgomery Lake Creek,87.63,213.19,117.93,,,Unlimited,SBD,M,
Boys,89.81,DQ,Peyton Vann,Montgomery Lake Creek,87.68,199.58,,,,Unlimited,SBD,M,
Boys,89.81,DQ,Wilson Woodruff,Conroe The Woodlands,89.13,235.87,142.88,,,Unlimited,SBD,M,
Boys,99.79,1,Garrett Loar,Willis,91.53,322.05,183.7,278.96,784.71,Unlimited,SBD,M,
Boys,99.79,2,Kaeden Cavnar,Conroe The Woodlands,97.11,272.16,206.38,276.69,755.23,Unlimited,SBD,M,
Boys,99.79,3,Jackson Patchell,Conroe The Woodlands,95.07,258.55,142.88,281.23,682.66,Unlimited,SBD,M,
Boys,99.79,4,Austen Hernandez,Willis,96.93,269.89,156.49,226.8,653.17,Unlimited,SBD,M,
Boys,99.79,5,Carson Schottie,Conroe,99.79,238.14,170.1,238.14,646.37,Unlimited,SBD,M,
Boys,99.79,6,Jesus Alanis-Zamago,Pollok Central,99.56,244.94,142.88,235.87,623.69,Unlimited,SBD,M,
Boys,99.79,7,Dylan Medina,Montgomery Lake Creek,98.2,238.14,165.56,208.65,612.35,Unlimited,SBD,M,
Boys,99.79,8,Travis VanSchuyver,Willis,93.98,219.99,127.01,233.6,580.6,Unlimited,SBD,M,
Boys,99.79,9,Kayden Victorick,New Caney West Fork,97.02,195.04,127.01,208.65,530.7,Unlimited,SBD,M,
Boys,99.79,10,Mason Ford,Montgomery Lake Creek,90.49,183.7,154.22,172.37,510.29,Unlimited,SBD,M,
Boys,99.79,11,Jayden Canady,Conroe Oak Ridge,96.75,183.7,136.08,188.24,508.02,Unlimited,SBD,M,
Boys,99.79,DQ,Jarell Jackson,Houston Eisenhower,99.52,183.7,,,,Unlimited,SBD,M,
Boys,109.77,1,Nick Perez,Conroe Oak Ridge,109.13,310.71,185.97,231.33,728.02,Unlimited,SBD,M,
Boys,109.77,2,Nate Klie,Conroe The Woodlands,104.33,278.96,156.49,217.72,653.17,Unlimited,SBD,M,
Boys,109.77,3,Mikie Thompson,Conroe Oak Ridge,108.45,260.82,147.42,242.67,650.91,Unlimited,SBD,M,
Boys,109.77,4,Javon Kindle,Willis,109.68,233.6,174.63,226.8,635.03,Unlimited,SBD,M,
Boys,109.77,5,Juan Zamarripa,Pollok Central,107.82,254.01,136.08,226.8,616.89,Unlimited,SBD,M,
Boys,109.77,6,Ernesto Carreon,Conroe Caney Creek,106.87,249.48,136.08,206.38,591.94,Unlimited,SBD,M,
Boys,109.77,7,Austin Hinson,Conroe Woodlands College Park,104.05,231.33,142.88,215.46,589.67,Unlimited,SBD,M,
Boys,109.77,8,Lucas Scogin,Montgomery,108.73,197.31,111.13,183.7,492.15,Unlimited,SBD,M,
Boys,109.77,9,Noah Minchew,Conroe Woodlands College Park,103.33,183.7,129.27,151.95,464.93,Unlimited,SBD,M,
Boys,109.77,DQ,Ben Thomas,Conroe The Woodlands,107.59,,,,,Unlimited,SBD,M,
Boys,109.77,DQ,Travis Kopeck,Conroe Grand Oaks,106.64,,,,,Unlimited,SBD,M,
Boys,124.74,1,Caleb Fletcher,Willis,122.83,299.37,208.65,238.14,746.16,Unlimited,SBD,M,
Boys,124.74,2,Cooper Hydock,Montgomery,121.43,294.84,183.7,238.14,716.68,Unlimited,SBD,M,
Boys,124.74,3,Brandon Mathis,Conroe,113.53,276.69,206.38,231.33,714.41,Unlimited,SBD,M,
Boys,124.74,4,Peyton Robinson,Conroe Woodlands College Park,116.89,299.37,167.83,235.87,703.07,Unlimited,SBD,M,
Boys,124.74,5,Marek Montgomery,Montgomery,112.22,265.35,165.56,244.94,675.85,Unlimited,SBD,M,
Boys,124.74,6,Connor Moomaw,Conroe The Woodlands,121.47,267.62,161.03,217.72,646.37,Unlimited,SBD,M,
Boys,124.74,7,Landon Bowden,Montgomery,113.44,249.48,165.56,201.85,616.89,Unlimited,SBD,M,
Boys,124.74,8,Moises Vega,Conroe Caney Creek,114.35,238.14,127.01,222.26,587.4,Unlimited,SBD,M,
Boys,124.74,9,Brock Menzie,Conroe Woodlands College Park,117.71,233.6,140.61,181.44,555.65,Unlimited,SBD,M,
Boys,124.74,10,Caleb Sandegran,Montgomery,121.74,215.46,133.81,188.24,537.51,Unlimited,SBD,M,
Boys,124.74,11,Alyk Perkins,Pollok Central,112.26,176.9,122.47,204.12,503.49,Unlimited,SBD,M,
Boys,124.74,12,Mike Lawson,New Caney West Fork,120.79,179.17,124.74,195.04,498.95,Unlimited,SBD,M,
Boys,124.74,13,Korbin Armer,Conroe Caney Creek,123.29,215.46,104.33,176.9,496.68,Unlimited,SBD,M,
Boys,124.74,14,Brandon Metoyer,New Caney West Fork,124.1,149.69,102.06,151.95,403.7,Unlimited,SBD,M,
Boys,124.74,DQ,Andres Guerra,Conroe Oak Ridge,113.85,226.8,,,,Unlimited,SBD,M,
Boys,139.71,1,Rema Nwosu,Conroe Woodlands College Park,135.94,299.37,183.7,242.67,725.75,Unlimited,SBD,M,
Boys,139.71,2,Aiden Kaplan,Montgomery Lake Creek,128.23,265.35,195.04,251.74,712.14,Unlimited,SBD,M,
Boys,139.71,3,Logan Hilton,Willis,127.6,276.69,183.7,226.8,687.19,Unlimited,SBD,M,
Boys,139.71,4,Walker Mott,Conroe Oak Ridge,128.68,249.48,183.7,240.4,673.58,Unlimited,SBD,M,
Boys,139.71,5,Josh Ashton,Conroe The Woodlands,130.45,260.82,154.22,226.8,641.83,Unlimited,SBD,M,
Boys,139.71,6,Jaxon Sayers,Montgomery Lake Creek,126.33,235.87,163.29,240.4,639.57,Unlimited,SBD,M,
Boys,139.71,7,Luke Adams,Conroe Woodlands College Park,133.95,229.06,149.69,219.99,598.74,Unlimited,SBD,M,
Boys,139.71,DQ,Frankie Long,Willis,129.14,240.4,,,,Unlimited,SBD,M,
Boys,139.71+,1,Levi Zaunbrecher,Conroe The Woodlands,157.85,274.42,167.83,249.48,691.73,Unlimited,SBD,M,
Boys,139.71+,2,Carson Robinson,Montgomery,145.29,226.8,138.35,215.46,580.6,Unlimited,SBD,M,
Boys,139.71+,3,Diego Gomez,Conroe Grand Oaks,148.51,226.8,127.01,226.8,580.6,Unlimited,SBD,M,
Boys,139.71+,4,Javier Alanis-Zamago,Pollok Central,167.51,217.72,165.56,170.1,553.38,Unlimited,SBD,M,
Boys,139.71+,5,Vincent Lange,Conroe Oak Ridge,139.75,188.24,133.81,174.63,496.68,Unlimited,SBD,M,
