Division,WeightClassKg,Place,Name,Team,BodyweightKg,Best3SquatKg,Best3BenchKg,Best3DeadliftKg,TotalKg,Equipment,Event,Sex,BirthDate
Boys,51.71,1,Angel Olvera,Wolfe City,45.27,102.06,63.5,108.86,274.42,Unlimited,SBD,M,
Boys,55.79,1,Dakota Brown #1,Quitman,52.71,124.74,77.11,129.27,331.12,Unlimited,SBD,M,
Boys,55.79,2,Damon Suarez,Kemp,55.34,124.74,56.7,120.2,301.64,Unlimited,SBD,M,
Boys,55.79,3,Clay Horton,Wolfe City,53.89,70.31,54.43,97.52,222.26,Unlimited,SBD,M,
Boys,59.87,1,Andrew Roach,Emory Rains,57.65,133.81,70.31,138.35,342.46,Unlimited,SBD,M,
Boys,59.87,2,Bryan Williams,Kemp,58.65,136.08,74.84,129.27,340.19,Unlimited,SBD,M,
Boys,59.87,3,Kavin Moore,Emory Rains,57.61,111.13,63.5,131.54,306.17,Unlimited,SBD,M,
Boys,67.13,1,Hayden Breding,Quitman,66.18,174.63,124.74,183.7,483.08,Unlimited,SBD,M,
Boys,67.13,2,Cannon Miller,Wolfe City,64.5,190.51,117.93,165.56,474,Unlimited,SBD,M,
Boys,67.13,3,Jj Sanders,Quitman,64.86,145.15,79.38,154.22,378.75,Unlimited,SBD,M,
Boys,67.13,4,John Wilson,Wolfe City,62.78,117.93,72.57,124.74,315.25,Unlimited,SBD,M,
Boys,67.13,5,Cole Dowd,Kemp,61.69,90.72,56.7,92.99,240.4,Unlimited,SBD,M,
Boys,74.84,1,Ben Boisclair,Quitman,74.39,201.85,122.47,199.58,523.9,Unlimited,SBD,M,
Boys,74.84,2,Braxton Birchfield,Quitman,74.75,195.04,108.86,176.9,480.81,Unlimited,SBD,M,
Boys,74.84,3,Preston Flores,Quitman,72.57,181.44,106.59,165.56,453.59,Unlimited,SBD,M,
Boys,74.84,4,Maddox Henderson,Kemp,73.39,158.76,102.06,158.76,419.57,Unlimited,SBD,M,
Boys,74.84,5,Lanceden Surratt,Kemp,70.76,149.69,104.33,158.76,412.77,Unlimited,SBD,M,
Boys,74.84,6,Jacob McComb,Emory Rains,74.48,111.13,79.38,122.47,312.98,Unlimited,SBD,M,
Boys,74.84,7,Levi Kulick,Kemp,68.76,97.52,54.43,102.06,254.01,Unlimited,SBD,M,
Boys,74.84,DQ,Colby Witt,Emory Rains,70.67,117.93,,,,Unlimited,SBD,M,
Boys,82.1,1,Jacob Breding,Quitman,79.47,165.56,124.74,183.7,474,Unlimited,SBD,M,
Boys,82.1,2,Warren Richardson,Wolfe City,78.93,183.7,106.59,170.1,460.4,Unlimited,SBD,M,
Boys,89.81,1,Cade Papez,Quitman,89.68,188.24,129.27,226.8,544.31,Unlimited,SBD,M,
Boys,89.81,2,Hd Davis,Wolfe City,85.18,229.06,142.88,165.56,537.51,Unlimited,SBD,M,
Boys,89.81,3,Brody Gardner,Wolfe City,84.41,167.83,108.86,154.22,430.91,Unlimited,SBD,M,
Boys,99.79,1,Gage Sanders,Wolfe City,98.97,208.65,151.95,197.31,557.92,Unlimited,SBD,M,
Boys,99.79,2,Abel Gallegos,Kemp,99.25,226.8,129.27,199.58,555.65,Unlimited,SBD,M,
Boys,99.79,3,Aiden Samples,Wolfe City,93.03,195.04,106.59,179.17,480.81,Unlimited,SBD,M,
Boys,99.79,4,Daniel García,Wolfe City,97.16,192.78,117.93,158.76,469.47,Unlimited,SBD,M,
Boys,99.79,5,Santiago Marquez,Wolfe City,99.7,172.37,83.91,151.95,408.23,Unlimited,SBD,M,
Boys,99.79,DQ,Colt Ottmo,Kemp,95.16,158.76,104.33,,,Unlimited,SBD,M,
Boys,109.77,1,Daniel Hernandez,Wolfe City,105.51,151.95,102.06,145.15,399.16,Unlimited,SBD,M,
Boys,124.74,1,Alex Puentes,Wolfe City,116.62,249.48,197.31,183.7,630.49,Unlimited,SBD,M,
Boys,124.74,2,Cody Killgo,Wolfe City,123.01,206.38,136.08,172.37,514.83,Unlimited,SBD,M,
Boys,139.71,1,Michael Hipp,Quitman,125.87,244.94,129.27,204.12,578.33,Unlimited,SBD,M,
Boys,139.71,DQ,Scott Eubanks,Emory Rains,132.59,,,,,Unlimited,SBD,M,
