Division,WeightClassKg,Place,Name,Team,BodyweightKg,Best3SquatKg,Best3BenchKg,Best3DeadliftKg,TotalKg,Equipment,Event,Sex,BirthDate
Boys,51.71,1,Ollie Cortez,Van Vleck,50.98,163.29,86.18,163.29,412.77,Unlimited,SBD,M,
Boys,51.71,2,Cesar Vazquez,Nixon Smiley,51.07,154.22,106.59,151.95,412.77,Unlimited,SBD,M,
Boys,51.71,3,Cole Morgan,Danbury,49.99,131.54,83.91,142.88,358.34,Unlimited,SBD,M,
Boys,51.71,4,Cameron Graves #1,Palacios,50.8,122.47,90.72,136.08,349.27,Unlimited,SBD,M,
Boys,51.71,5,Aiden Escochea,Danbury,51.53,124.74,72.57,140.61,337.93,Unlimited,SBD,M,
Boys,51.71,6,Juan Amezquita,Van Vleck,50.8,127.01,70.31,133.81,331.12,Unlimited,SBD,M,
Boys,51.71,7,Javen Flores,Van Vleck,51.35,113.4,58.97,106.59,278.96,Unlimited,SBD,M,
Boys,51.71,8,Rigby Bailes,Coldspring-Oakhurst,51.71,102.06,58.97,111.13,272.16,Unlimited,SBD,M,
Boys,51.71,9,Rocky Garcia,El Maton Tidehaven,42.46,113.4,61.23,92.99,267.62,Unlimited,SBD,M,
Boys,51.71,10,Clint Batey,Shepherd,46.9,92.99,54.43,92.99,240.4,Unlimited,SBD,M,
Boys,51.71,NS,Hunter Ard,Warren,,,,,,Unlimited,SBD,M,
Boys,51.71,NS,Carlos Luna,Hitchcock,,,,,,Unlimited,SBD,M,
Boys,51.71,DQ,Jeremiah Kennebrew,Newton,46.27,,,,,Unlimited,SBD,M,
Boys,55.79,1,Carlos Gamez,Hitchcock,54.57,176.9,97.52,176.9,451.32,Unlimited,SBD,M,
Boys,55.79,2,Sergio Martinez,Wallis Brazos,54.61,156.49,95.25,176.9,428.64,Unlimited,SBD,M,
Boys,55.79,3,Andrew Meza,Nixon Smiley,54.61,151.95,102.06,161.03,415.04,Unlimited,SBD,M,
Boys,55.79,4,Diego Orozco,Shepherd,55.25,167.83,74.84,165.56,408.23,Unlimited,SBD,M,
Boys,55.79,5,Isiah Trevino,Boling,55.79,161.03,97.52,149.69,408.23,Unlimited,SBD,M,
Boys,55.79,6,Kris Manning,Boling,54.52,147.42,92.99,163.29,403.7,Unlimited,SBD,M,
Boys,55.79,7,Chris McCarty,Hardin,54.79,154.22,83.91,156.49,394.63,Unlimited,SBD,M,
Boys,55.79,8,Khali Jantes,Nixon Smiley,55.07,145.15,97.52,151.95,394.63,Unlimited,SBD,M,
Boys,55.79,9,Anthony Tomanek,Victoria St. Joseph,55.25,138.35,97.52,154.22,390.09,Unlimited,SBD,M,
Boys,55.79,10,Miguel Vegas,Boling,55.07,149.69,79.38,149.69,378.75,Unlimited,SBD,M,
Boys,55.79,DQ,Eduardo Betancourt,Nixon Smiley,55.7,,,,,Unlimited,SBD,M,
Boys,55.79,DQ,Jose Flores,Van Vleck,54.61,147.42,90.72,,,Unlimited,SBD,M,
Boys,59.87,1,Tyler Barrientez,Nixon Smiley,59.33,215.46,133.81,192.78,542.04,Unlimited,SBD,M,
Boys,59.87,2,Jaden Thibodeaux,Winnie East Chambers,58.88,195.04,131.54,197.31,523.9,Unlimited,SBD,M,
Boys,59.87,3,John Mendoza,Altair Rice,59.24,204.12,124.74,170.1,498.95,Unlimited,SBD,M,
Boys,59.87,4,Martin Pereyda,Anahuac,59.78,188.24,122.47,188.24,498.95,Unlimited,SBD,M,
Boys,59.87,5,Marcavion Ruckett,Van Vleck,59.87,188.24,95.25,163.29,446.79,Unlimited,SBD,M,
Boys,59.87,6,John Garza,Nixon Smiley,59.33,161.03,102.06,154.22,417.3,Unlimited,SBD,M,
Boys,59.87,7,Hunter Bertrand,Wallis Brazos,58.69,142.88,92.99,176.9,412.77,Unlimited,SBD,M,
Boys,59.87,8,Aiden Weeks,Woodville,59.69,158.76,108.86,142.88,410.5,Unlimited,SBD,M,
Boys,59.87,9,Cameron Medrano,Vanderbilt Industrial,58.24,151.95,90.72,149.69,392.36,Unlimited,SBD,M,
Boys,59.87,DQ,Anthony Becerra,Altair Rice,59.51,,,,,Unlimited,SBD,M,
Boys,59.87,DQ,Emmanuel Zapeda,Orangefield,58.24,,,,,Unlimited,SBD,M,
Boys,59.87,DQ,Gabriel Wisnieski,East Bernard,59.42,167.83,,,,Unlimited,SBD,M,
Boys,67.13,1,Oscar Acosta,Nixon Smiley,65.5,240.4,165.56,231.33,637.3,Unlimited,SBD,M,
Boys,67.13,2,Jacob Arguijo,Palacios,65.68,229.06,136.08,210.92,576.06,Unlimited,SBD,M,
Boys,67.13,3,Moises Cardenas,Cleveland Tarkington,65.77,206.38,131.54,231.33,569.26,Unlimited,SBD,M,
Boys,67.13,4,Cyrus Martinez,Shepherd,66.22,229.06,117.93,217.72,564.72,Unlimited,SBD,M,
Boys,67.13,5,Jose Olvera,Nixon Smiley,66.77,235.87,113.4,195.04,544.31,Unlimited,SBD,M,
Boys,67.13,6,Damian Paniagua,Boling,65.5,197.31,127.01,190.51,514.83,Unlimited,SBD,M,
Boys,67.13,7,Tatum Brasseaux,Winnie East Chambers,64.68,204.12,129.27,167.83,501.22,Unlimited,SBD,M,
Boys,67.13,8,Major Copeland,Orangefield,64.95,183.7,122.47,190.51,496.68,Unlimited,SBD,M,
Boys,67.13,9,Noah Almaraz,Danbury,63.87,172.37,129.27,190.51,492.15,Unlimited,SBD,M,
Boys,67.13,10,Adrian Alvarez,Boling,65.59,181.44,115.67,195.04,492.15,Unlimited,SBD,M,
Boys,67.13,NS,Jordan Garcia,El Maton Tidehaven,,,,,,Unlimited,SBD,M,
Boys,67.13,NS,Gael Duran,Wallis Brazos,,,,,,Unlimited,SBD,M,
Boys,74.84,1,Cayden Tello,Columbus,74.21,213.19,163.29,219.99,596.47,Unlimited,SBD,M,
Boys,74.84,2,Bryson Sheppard,Buna,73.57,235.87,108.86,247.21,591.94,Unlimited,SBD,M,
Boys,74.84,3,Alijah Scardino,Marion,73.57,249.48,129.27,199.58,578.33,Unlimited,SBD,M,
Boys,74.84,4,Daegan Vaughn,Orangefield,73.75,199.58,147.42,222.26,569.26,Unlimited,SBD,M,
Boys,74.84,5,Paul Jeminez,Shepherd,70.58,215.46,133.81,213.19,562.45,Unlimited,SBD,M,
Boys,74.84,6,Alexander Garcia,Palacios,73.84,226.8,145.15,181.44,553.38,Unlimited,SBD,M,
Boys,74.84,7,Caden Knebel #1,Boling,73.66,208.65,117.93,213.19,539.77,Unlimited,SBD,M,
Boys,74.84,8,Caden Zarate,East Bernard,70.58,226.8,113.4,195.04,535.24,Unlimited,SBD,M,
Boys,74.84,9,Daiten Garza,Van Vleck,73.94,224.53,113.4,176.9,514.83,Unlimited,SBD,M,
Boys,74.84,10,Xavier Garcia,Orangefield,74.12,183.7,104.33,213.19,501.22,Unlimited,SBD,M,
Boys,74.84,11,Keith Baker,Shepherd,73.39,206.38,106.59,174.63,487.61,Unlimited,SBD,M,
Boys,74.84,NS,Thomas Breazeale,The Woodlands Christian Academy,,,,,,Unlimited,SBD,M,
Boys,74.84,DQ,Adolfo Vazquez,Nixon Smiley,74.21,219.99,,,,Unlimited,SBD,M,
Boys,82.1,1,Gage Murphy,Shepherd,80.01,299.37,185.97,240.4,725.75,Unlimited,SBD,M,
Boys,82.1,2,Cody Armstrong,Van Vleck,79.02,238.14,172.37,240.4,650.91,Unlimited,SBD,M,
Boys,82.1,3,Omar Morales Navarro,Nixon Smiley,81.37,238.14,149.69,249.48,637.3,Unlimited,SBD,M,
Boys,82.1,4,Rafael Almaraz,Wallis Brazos,79.92,263.08,131.54,235.87,630.49,Unlimited,SBD,M,
Boys,82.1,5,Jackson Morrow,East Bernard,80.29,233.6,147.42,219.99,601.01,Unlimited,SBD,M,
Boys,82.1,6,Broc Birdwell,Marion,80.47,217.72,154.22,199.58,571.53,Unlimited,SBD,M,
Boys,82.1,7,Eliceo Martinez,Winnie East Chambers,81.83,219.99,156.49,195.04,571.53,Unlimited,SBD,M,
Boys,82.1,8,Preston Janak,Victoria St. Joseph,79.83,210.92,136.08,208.65,555.65,Unlimited,SBD,M,
Boys,82.1,9,Kase Weishuhn,Columbus,77.56,199.58,120.2,226.8,546.58,Unlimited,SBD,M,
Boys,82.1,10,Brenton Whitley,Cleveland Tarkington,78.47,210.92,145.15,190.51,546.58,Unlimited,SBD,M,
Boys,82.1,11,Gauge McCain,Wallis Brazos,81.1,210.92,131.54,,342.46,Unlimited,SB,M,
Boys,82.1,12,Josh Turner,Vanderbilt Industrial,82.1,240.4,,,240.4,Unlimited,S,M,
Boys,89.81,1,DJ Losack,East Bernard,88.09,274.42,195.04,240.4,709.87,Unlimited,SBD,M,
Boys,89.81,2,Jesus Espino,Nixon Smiley,89.36,249.48,183.7,244.94,678.12,Unlimited,SBD,M,
Boys,89.81,3,Clay Kohleffel,Columbus,85.55,238.14,183.7,226.8,648.64,Unlimited,SBD,M,
Boys,89.81,4,Trent Bruno,Kountze,88.99,235.87,140.61,267.62,644.1,Unlimited,SBD,M,
Boys,89.81,5,John Cantu,Victoria St. Joseph,88.9,213.19,167.83,215.46,596.47,Unlimited,SBD,M,
Boys,89.81,6,Thomas Delao,Anahuac,88.45,222.26,140.61,222.26,585.13,Unlimited,SBD,M,
Boys,89.81,7,Garret Kolo,Vanderbilt Industrial,89.54,226.8,136.08,210.92,573.79,Unlimited,SBD,M,
Boys,89.81,8,Thomas Copeland,Victoria St. Joseph,87.09,219.99,142.88,208.65,571.53,Unlimited,SBD,M,
Boys,89.81,9,Josue Garcia,Winnie East Chambers,89.36,233.6,120.2,208.65,562.45,Unlimited,SBD,M,
Boys,89.81,10,Clinton Foster,Newton,87.82,197.31,120.2,208.65,526.17,Unlimited,SBD,M,
Boys,89.81,11,Peter Redecop,Warren,86.36,208.65,131.54,176.9,517.1,Unlimited,SBD,M,
Boys,89.81,NS,Jonathan Floria,Shepherd,,,,,,Unlimited,SBD,M,
Boys,89.81,DQ,Tyler Kelley,Anahuac,83.82,,,,,Unlimited,SBD,M,
Boys,99.79,1,Kasey Zientek,Wallis Brazos,95.44,322.05,206.38,254.01,782.45,Unlimited,SBD,M,
Boys,99.79,2,Akilles Garcia,Orangefield,93.44,281.23,215.46,267.62,764.3,Unlimited,SBD,M,
Boys,99.79,3,Victor Torres,El Maton Tidehaven,95.25,251.74,172.37,251.74,675.85,Unlimited,SBD,M,
Boys,99.79,4,Gavino Moreno,Nixon Smiley,98.07,249.48,172.37,249.48,671.32,Unlimited,SBD,M,
Boys,99.79,5,Diego Garcia,Orangefield,98.79,226.8,190.51,254.01,671.32,Unlimited,SBD,M,
Boys,99.79,6,Seth Wherry,Wallis Brazos,94.26,242.67,188.24,226.8,657.71,Unlimited,SBD,M,
Boys,99.79,7,Jonathan Kenebrew,Newton,96.71,240.4,158.76,249.48,648.64,Unlimited,SBD,M,
Boys,99.79,8,Aiden Drozd,Hallettsville,97.43,226.8,151.95,238.14,616.89,Unlimited,SBD,M,
Boys,99.79,9,Lyndon Chambers,Columbus,99.7,226.8,190.51,199.58,616.89,Unlimited,SBD,M,
Boys,99.79,10,Sam Potts,East Bernard,95.62,247.21,133.81,233.6,614.62,Unlimited,SBD,M,
Boys,99.79,11,Antrevion Gatson,Newton,95.16,229.06,117.93,244.94,591.94,Unlimited,SBD,M,
Boys,99.79,12,Ethan Barker,El Maton Tidehaven,96.16,233.6,140.61,215.46,589.67,Unlimited,SBD,M,
Boys,99.79,13,Landon Ponton,Hardin,92.8,226.8,124.74,226.8,578.33,Unlimited,SBD,M,
Boys,99.79,DQ,Dannin Spikes,Newton,96.71,204.12,115.67,,,Unlimited,SBD,M,
Boys,109.77,1,Justin Dehoyos,Marion,109.32,283.5,192.78,254.01,730.28,Unlimited,SBD,M,
Boys,109.77,2,Chris Escobedo,Wallis Brazos,101.97,276.69,183.7,265.35,725.75,Unlimited,SBD,M,
Boys,109.77,3,Chris Turley,Buna,103.33,285.76,167.83,240.4,694,Unlimited,SBD,M,
Boys,109.77,4,Steven Walstrom,Boling,107.32,254.01,174.63,235.87,664.51,Unlimited,SBD,M,
Boys,109.77,5,Angel Amezquita,Van Vleck,106.87,247.21,165.56,229.06,641.83,Unlimited,SBD,M,
Boys,109.77,6,Jackson Kahanek,Vanderbilt Industrial,108.77,272.16,158.76,190.51,621.42,Unlimited,SBD,M,
Boys,109.77,7,Kellyn Husband,Coldspring-Oakhurst,99.88,210.92,190.51,213.19,614.62,Unlimited,SBD,M,
Boys,109.77,8,RChon Washington,Newton,105.87,222.26,136.08,249.48,607.81,Unlimited,SBD,M,
Boys,109.77,9,Zeke Hutzil,Vanderbilt Industrial,102.06,238.14,136.08,217.72,591.94,Unlimited,SBD,M,
Boys,109.77,10,Kyle Schreoder,Vanderbilt Industrial,101.24,226.8,142.88,201.85,571.53,Unlimited,SBD,M,
Boys,109.77,11,Robert Boysen,Hitchcock,109.77,213.19,142.88,201.85,557.92,Unlimited,SBD,M,
Boys,109.77,12,Pharrell Newsome,Coldspring-Oakhurst,102.15,190.51,124.74,238.14,553.38,Unlimited,SBD,M,
Boys,124.74,1,Kohl Powell,Vanderbilt Industrial,122.83,288.03,204.12,260.82,752.96,Unlimited,SBD,M,
Boys,124.74,2,Emmanul Hernandez,Newton,124.19,308.44,183.7,260.82,752.96,Unlimited,SBD,M,
Boys,124.74,3,Albert Ruben,Hitchcock,121.29,278.96,165.56,233.6,678.12,Unlimited,SBD,M,
Boys,124.74,4,Noah Castro,Shepherd,124.19,269.89,124.74,231.33,625.96,Unlimited,SBD,M,
Boys,124.74,5,Kobie Cheek,Shepherd,118.3,265.35,147.42,197.31,610.08,Unlimited,SBD,M,
Boys,124.74,6,Cole Willis,Anahuac,123.2,240.4,136.08,217.72,594.21,Unlimited,SBD,M,
Boys,124.74,7,Donnae Devereaux,Boling,118.21,249.48,174.63,,424.11,Unlimited,SB,M,
Boys,124.74,8,River Bergman,Yoakum,120.29,249.48,133.81,,383.29,Unlimited,SB,M,
Boys,124.74,DQ,Keenan Hailey,Altair Rice,121.38,285.76,181.44,,,Unlimited,SBD,M,
Boys,124.74,DQ,Donovan Devereaux,Boling,120.93,,,,,Unlimited,SBD,M,
Boys,124.74,DQ,Trey Ferguson,Buna,123.29,,,,,Unlimited,SBD,M,
Boys,124.74,DQ,Angel Gonzalez,Altair Rice,115.76,,,,,Unlimited,SBD,M,
Boys,139.71,1,Leithan Beck,Shepherd,130,303.91,170.1,244.94,718.94,Unlimited,SBD,M,
Boys,139.71,2,Cole Newell,Boling,133.17,265.35,158.76,213.19,637.3,Unlimited,SBD,M,
Boys,139.71,3,Noah Jenks,Nixon Smiley,125.01,235.87,145.15,210.92,591.94,Unlimited,SBD,M,
Boys,139.71,4,Jared Schmidt,Newton,131.9,210.92,147.42,222.26,580.6,Unlimited,SBD,M,
Boys,139.71,5,Christian Lowe,Kirbyville,130,235.87,122.47,217.72,576.06,Unlimited,SBD,M,
Boys,139.71,6,Luke Gipson,Vanderbilt Industrial,136.71,208.65,165.56,165.56,539.77,Unlimited,SBD,M,
Boys,139.71,7,Tanner Arrington,Van Vleck,126.1,217.72,149.69,170.1,537.51,Unlimited,SBD,M,
Boys,139.71,8,Mike Smith,Kirbyville,132.81,206.38,145.15,183.7,535.24,Unlimited,SBD,M,
Boys,139.71,9,Jaron Roden,Kirbyville,128.09,222.26,158.76,,381.02,Unlimited,SB,M,
Boys,139.71,DQ,Bart Sylestine,Woodville,134.26,,,,,Unlimited,SBD,M,
Boys,139.71,DQ,Caleb Malone,Palacios,130.91,,,,,Unlimited,SBD,M,
Boys,139.71,DQ,Angel Sanchez,Marion,127.46,170.1,,,,Unlimited,SBD,M,
Boys,139.71+,1,Hunter Williams,Newton,144.79,272.16,172.37,276.69,721.21,Unlimited,SBD,M,
Boys,139.71+,2,Zane Pennington,Hardin,143.52,265.35,147.42,226.8,639.57,Unlimited,SBD,M,
Boys,139.71+,3,Porfirio Lopez,Van Vleck,153.59,260.82,165.56,197.31,623.69,Unlimited,SBD,M,
Boys,139.71+,4,Cole Walters,Warren,141.34,188.24,120.2,199.58,508.02,Unlimited,SBD,M,
Boys,139.71+,NS,Carson Martin,Kountze,,,,,,Unlimited,SBD,M,
Boys,139.71+,DQ,Sam Geigley,Altair Rice,159.12,,,,,Unlimited,SBD,M,
Boys,139.71+,DQ,Jake Wooten,Van Vleck,160.3,192.78,,,,Unlimited,SBD,M,
