Place,Name,Sex,BirthDate,Age,Country,Equipment,Division,BodyweightKg,WeightClassKg,Squat1Kg,Squat2Kg,Squat3Kg,Squat4Kg,Best3SquatKg,Bench1Kg,Bench2Kg,Bench3Kg,Bench4Kg,Best3BenchKg,Deadlift1Kg,Deadlift2Kg,Deadlift3Kg,Deadlift4Kg,Best3DeadliftKg,TotalKg,Event
1,Jenni Nenonen,F,1972-12-18,51,Finland,Bare,F_MR_3_WPC,71.6,75,70,-90,90,,90,45,-55,55,,55,115,120,-130,,120,265,SBD
1,Riina Mikkonen,F,1988-03-19,36,Finland,Bare,F_OR_WPC,66.7,67.5,110,120,130,,130,75,85,-90,,85,120,130,142.5,,142.5,357.5,SBD
1,Silja Myllymäki,F,1996-02-19,28,Finland,Bare,F_OR_WPC,87.9,90,100,110,-120,,110,65,70,-75,,70,140,152.5,-160,,152.5,332.5,SBD
G,Amra Halilovic,F,1992-12-25,31,,Bare,F_OR_WPC,84.6,90,140,150,157.5,,157.5,-77.5,82.5,-92.5,,82.5,165,175,-185,,175,415,SBD
1,Oona Kuusisto,F,2009-08-25,14,Finland,Bare,F_TR_1_WPC,65.5,67.5,80,87.5,92.5,-100,92.5,40,46,50,-55,50,-100,100,111,,111,253.5,SBD
1,Linne Laukka,F,2001-02-28,23,Finland,Sleeves,F_JCR_WPC,59.8,60,85,95,-100,,95,45,-52.5,-52.5,,45,105,115,120,,120,260,SBD
1,Elli Peromaa,F,2000-07-13,23,Finland,Sleeves,F_JCR_WPC,81.1,82.5,140,155,162.5,,162.5,77.5,-85,85,,85,145,155,-165,,155,402.5,SBD
1,Jatta Ihanmäki,F,1983-08-25,40,Finland,Wraps,F_MCR_1_WPC,53.6,56,80,90,-100,,90,-47.5,47.5,50,,50,105,-115,-120,,105,245,SBD
1,Pihla-Terttu Oksanen,F,1955-05-05,68,Finland,Sleeves,F_MCR_6_WPC,58.2,60,55,57.5,60,,60,35,-37.5,-37.5,,35,95,97.5,100,102.5,100,195,SBD
1,Maiju Hilander,F,1957-07-22,66,Finland,Wraps,F_MCR_6_WPC,69.1,75,90,100,-110,,100,-40,45,50,,50,140,147.5,150,,150,300,SBD
1,Jenni Pulli,F,1989-12-03,34,Finland,Sleeves,F_OCR_WPC,54.2,56,55,65,-70,,65,37.5,-42.5,-45,,37.5,90,-100,100,,100,202.5,SBD
1,Anu Holopainen,F,1985-04-17,38,Finland,Sleeves,F_OCR_WPC,65.9,67.5,110,120,-128,,120,50,-55,57.5,,57.5,150,-162.5,-170,,150,327.5,SBD
1,Essi Jäntti,F,2000-01-16,24,Finland,Sleeves,F_OCR_WPC,82.1,82.5,-145,152.5,162.5,,162.5,100,107.5,112.5,,112.5,170,180,187.5,,187.5,462.5,SBD
1,Sara Honkakangas,F,2009-03-12,15,Finland,Wraps,F_TCR_1_WPC,58.5,60,90,-100,-100,,90,50,55,57.5,-60,57.5,-105,-105,105,,105,252.5,SBD
1,Inka Arhenius,F,2008-10-19,15,Finland,Sleeves,F_TCR_1_WPC,86.3,90,97.5,115,130,,130,50,57.5,62.5,,62.5,110,125,137.5,,137.5,330,SBD
1,Irina Saari,F,2004-07-28,19,Finland,Wraps,F_TCR_3_WPC,58.4,60,82.5,-92.5,-92.5,,82.5,37.5,42.5,45,-47.5,45,110,120,-125,,120,247.5,SBD
1,Sofia Valkama,F,2004-12-05,19,Finland,Sleeves,F_TCR_3_WPC,67.5,67.5,95,-101,101,105,101,60,-65,-65,,60,145,152.5,158,,158,319,SBD
1,Aada Vuoriaho,F,2006-01-16,18,Finland,Wraps,F_TCR_3_WPC,74.2,75,120,132.5,140,,140,45,50,52.5,,52.5,120,130,140,145,140,332.5,SBD
1,Eija Pesonen,F,1991-12-03,32,Finland,Multi-ply,F_OEM_WPC,59.9,60,140,150,165,,165,70,80,-95,,80,200,-210,-210,,200,445,SBD
1,Vilhelmiina Sillanpää,F,1995-09-16,28,Finland,Single-ply,F_OES_WPC,65.6,67.5,182.5,192.5,202.5,-210.5,202.5,65,90,100.5,,100.5,100,135,157.5,185.5,157.5,460.5,SBD
1,Timo Tissari,M,2000-06-06,23,Finland,Bare,M_JR_WPC,80.3,82.5,110,120,130,,130,90,95,-100,,95,205,220,-230,,220,445,SBD
1,Daniil Korneev,M,2002-11-26,21,Finland,Bare,M_JR_WPC,83.6,90,135,145,150,,150,-120,125,127.5,,127.5,170,175,180,,180,457.5,SBD
1,Jussi Wilen,M,1981-11-26,42,Finland,Bare,M_MR_1_WPC,80.5,82.5,150,157.5,162.5,,162.5,120,125,130,,130,220,240,250.5,,250.5,543,SBD
1,Samppa Nyman,M,1983-02-04,41,Finland,Bare,M_MR_1_WPC,88.2,90,200,215,225,,225,130,135,140,,140,230,245,255,,255,620,SBD
2,Miika Kajavalta,M,1979-03-30,44,Finland,Bare,M_MR_1_WPC,88.8,90,145,155,160,,160,130,-140,,,130,180,-200,,,180,470,SBD
1,Olli Myöhänen,M,1981-06-29,42,Finland,Bare,M_MR_1_WPC,120.7,125,260,-280,-280,,260,210,-220,220,,220,310,325,335,,335,815,SBD
1,Timo Tuuri,M,1976-06-28,47,Finland,Bare,M_MR_2_WPC,66.5,67.5,145,155,-165,,155,105,110,-115,,110,190,200,205,,205,470,SBD
1,Antti Tietäväinen,M,1977-11-10,46,Finland,Bare,M_MR_2_WPC,88.2,90,190,195,,,195,-150,150,,,150,220,230,-240,,230,575,SBD
1,Tuomas Tikkanen,M,1978-09-10,45,Finland,Bare,M_MR_2_WPC,106.5,110,220,235,245,252.5,245,170,180,-185,,180,250,-270,,,250,675,SBD
2,Harri Korhonen,M,1979-01-04,45,Finland,Bare,M_MR_2_WPC,100.1,110,145,155,170,,170,130,-140,-140,,130,210,225,-240,,225,525,SBD
1,Jarno Ojala,M,1977-04-18,46,Finland,Bare,M_MR_2_WPC,127.3,140,140,-150,,,140,-135,150,160,,160,160,180,200,,200,500,SBD
1,Juha-Pekka Kinnunen,M,1973-08-17,50,Finland,Bare,M_MR_3_WPC,116.3,125,210,-217.5,220,,220,135,140,145,,145,220,230,235,,235,600,SBD
1,Janne Murto,M,1968-03-02,56,Finland,Bare,M_MR_4_WPC,96.9,100,130,140,-145,,140,115,-125,-125,,115,175,185,-195,,185,440,SBD
1,Juha Järvisalo,M,1968-02-17,56,Finland,Bare,M_MR_4_WPC,107.3,110,-200,200,215.5,,215.5,125,130,135,,135,210,235,250,,250,600.5,SBD
1,Billy Haavisto,M,1965-08-06,58,Finland,Bare,M_MR_4_WPC,112.2,125,190,205,-220,,205,140,-150,,,140,65,,,,65,410,SBD
DQ,Juhani Kärkkäinen,M,1959-10-17,64,Finland,Bare,M_MR_5_WPC,99.7,100,-190,-190,,,,-135,,,,,,,,,,,SBD
1,Manu Lehtiniemi,M,1998-06-23,25,Finland,Bare,M_OR_WPC,73.6,75,180,-190,-190,,180,145,-150,-150,,145,220,230,240,,240,565,SBD
2,Henri Toukometsä,M,1993-10-30,30,Finland,Bare,M_OR_WPC,74.5,75,175,182.5,192.5,,192.5,130,-140,-140,,130,205,220,-230,,220,542.5,SBD
1,Rene Makarenko,M,1999-05-28,24,Finland,Bare,M_OR_WPC,79.8,82.5,220,230,-235,,230,155,165,-170,,165,270,288,-300,,288,683,SBD
2,Jussi Jaakkola,M,1988-09-08,35,Finland,Bare,M_OR_WPC,82.1,82.5,210,-220,-225,,210,150,-160,-160,,150,265,-285,-290,,265,625,SBD
3,Olavi Nieminen,M,1997-02-26,27,Finland,Bare,M_OR_WPC,82.5,82.5,-100,100,,,100,-120,120,-130,,120,100,,,,100,320,SBD
1,Samppa Nyman,M,1983-02-04,41,Finland,Bare,M_OR_WPC,88.2,90,200,215,225,,225,130,135,140,,140,230,245,255,,255,620,SBD
2,Ville Hepokari,M,1984-12-02,39,Finland,Bare,M_OR_WPC,88.4,90,190,210,-225,,210,150,160,-170,,160,250,-270,-270,,250,620,SBD
3,Ville Saranpää,M,1999-03-01,25,Finland,Bare,M_OR_WPC,87.9,90,200,-215,-215,,200,125,-130,135,,135,215,230,-240,,230,565,SBD
1,Aleksi Hiissa,M,,30,Finland,Bare,M_OR_WPC,99.1,100,215,-230,-230,,215,145,150,155,,155,250,260,-270,,260,630,SBD
2,Sami Läpikivi,M,1991-03-05,33,Finland,Bare,M_OR_WPC,97.6,100,175,200,215,,215,130,140,,,140,250,-275,,,250,605,SBD
1,Tatu Kuusinen,M,1987-05-24,36,Finland,Bare,M_OR_WPC,106.5,110,-275,275,,,275,170,180,-190,,180,275,290,,,290,745,SBD
2,Jani Soininen,M,1984-09-28,39,Finland,Bare,M_OR_WPC,109.2,110,240,252.5,260,,260,160,170,-177.5,,170,270,-285,285,,285,715,SBD
3,Tuomas Tikkanen,M,1978-09-10,45,Finland,Bare,M_OR_WPC,106.5,110,220,235,245,252.5,245,170,180,-185,,180,250,-270,,,250,675,SBD
4,Aaro Mäki-Jouppila,M,1999-05-01,24,Finland,Bare,M_OR_WPC,108.6,110,185,197.5,-205,,197.5,130,135,140,,140,215,230,240,,240,577.5,SBD
DQ,Janne Fagerlund,M,1989-06-03,34,Finland,Bare,M_OR_WPC,109.6,110,220,230,-235,,230,-160,-160,-165,,,,,,,,,SBD
1,Iiro Jokipalo,M,1991-09-03,32,Finland,Bare,M_OR_WPC,121.5,125,290,305.5,-320,,305.5,190,200,205,,205,290,297.5,307.5,,307.5,818,SBD
2,Olli Myöhänen,M,1981-06-29,42,Finland,Bare,M_OR_WPC,120.7,125,260,-280,-280,,260,210,-220,220,,220,310,325,335,,335,815,SBD
1,Toni Liikanen,M,1986-02-26,38,Finland,Bare,M_OR_WPC,130.2,140,70,,,,70,170,-180,180,,180,210,230,-240,,230,480,SBD
1,Valto Astaptsev,M,2010-07-26,13,Finland,Bare,M_TR_1_WPC,62.8,67.5,75,85,90,,90,35,40,-45,,40,92.5,100,-105,,100,230,SBD
1,Niilo Smeds,M,2006-11-07,17,Finland,Bare,M_TR_2_WPC,66.7,67.5,95,105,112.5,-120.5,112.5,70,80,85,,85,95,112.5,125,,125,322.5,SBD
1,Noel Henriksson,M,2007-01-01,17,Finland,Bare,M_TR_2_WPC,109.1,110,190,210,-220,,210,130,137.5,,,137.5,220,240,253,,253,600.5,SBD
1,Mathias Mynttinen,M,2001-08-22,22,Finland,Sleeves,M_JCR_WPC,81.4,82.5,-170,170,180,,180,120,-125,-125,,120,-200,200,-215,,200,500,SBD
1,Jaakko Haapasalmi,M,2002-11-07,21,Finland,Wraps,M_JCR_WPC,89,90,170,180,-192.5,,180,130,-140,-147.5,,130,210,-245,,,210,520,SBD
1,Jeremia Saloniemi,M,2001-10-15,22,Finland,Wraps,M_JCR_WPC,96.2,100,195,205,-220,,205,120,127.5,-132.5,,127.5,245,260,270,,270,602.5,SBD
2,Alex Gyursanszky,M,2001-03-22,23,,Wraps,M_JCR_WPC,99,100,192.5,205,217.5,,217.5,117.5,125,132.5,,132.5,235,252.5,-267.5,,252.5,602.5,SBD
1,Jere Uusikartano,M,2001-05-20,22,Finland,Wraps,M_JCR_WPC,107.7,110,210,220,230,,230,125,-135,135,,135,240,255,265,,265,630,SBD
2,Nico Viljakainen,M,2003-05-02,20,Finland,Wraps,M_JCR_WPC,109.4,110,170,182.5,190,,190,137.5,147.5,155,,155,200,215,230,,230,575,SBD
1,Anthony Singh #1,M,2001-01-26,23,Finland,Wraps,M_JCR_WPC,122.9,125,315,330,350,-365,350,180,190,200,,200,300,330,350,,350,900,SBD
1,Tommi Läntinen,M,1980-07-25,43,Finland,Wraps,M_MCR_1_WPC,88.3,90,200,215,-225,,215,90,100,110,,110,220,240,-260,,240,565,SBD
2,Tuomas Siivonen,M,1979-11-04,44,Finland,Wraps,M_MCR_1_WPC,89.8,90,170,-180,-185,,170,107.5,112.5,-115,,112.5,175,195,-202.5,,195,477.5,SBD
1,Asseri Kyytsönen,M,1983-11-13,40,Finland,Wraps,M_MCR_1_WPC,99.3,100,210,230,-240,,230,160,170,180,,180,270,-292.5,-292.5,,270,680,SBD
2,Tero Manner,M,1980-08-24,43,Finland,Wraps,M_MCR_1_WPC,98.8,100,-190,190,-212.5,,190,115,-122.5,-122.5,,115,200,220,-230,,220,525,SBD
1,Jari Koskinen,M,1982-09-05,41,Finland,Wraps,M_MCR_1_WPC,109.8,110,285,305,315,,315,195,210,217.5,,217.5,285,305,317.5,325,317.5,850,SBD
2,Tero Pitkänen,M,1980-10-03,43,Finland,Wraps,M_MCR_1_WPC,102,110,240,-260,,,240,165,172.5,,,172.5,260,275,-292.5,,275,687.5,SBD
3,Lasse Ohtamaa,M,1980-06-19,43,Finland,Wraps,M_MCR_1_WPC,103.8,110,200,215,222.5,,222.5,150,-160,162.5,,162.5,235,250,257.5,,257.5,642.5,SBD
G,David Lindström,M,1981-05-29,42,,Wraps,M_MCR_1_WPC,108.8,110,175,190,205,,205,110,115,120,,120,225,-245,245,,245,570,SBD
1,Jussi Valkama,M,1981-05-26,42,Finland,Wraps,M_MCR_1_WPC,115.1,125,305,330,340,,340,192.5,200,-205,,200,300,325,-332.5,,325,865,SBD
2,Ville Suominen,M,1982-07-01,41,Finland,Wraps,M_MCR_1_WPC,122.9,125,330,-345,345.5,,345.5,170,-180,-180,,170,300,-337.5,,,300,815.5,SBD
3,Jouko Enholm-Kiesiläinen,M,1982-09-24,41,Finland,Wraps,M_MCR_1_WPC,122.5,125,230,245,255,,255,165,177.5,182.5,,182.5,230,245,255,,255,692.5,SBD
1,Toni Mikkola,M,,47,Finland,Wraps,M_MCR_2_WPC,80,82.5,170,175,180,,180,125,130,-135,,130,180,190,200,,200,510,SBD
2,Jorma Mononen,M,1974-08-22,49,Finland,Wraps,M_MCR_2_WPC,79.9,82.5,140,-160,-160,,140,135,142.5,-150,,142.5,200,210,,,210,492.5,SBD
1,Jorma Mäkeläinen,M,1976-05-23,47,Finland,Wraps,M_MCR_2_WPC,97.1,100,210,220,-230,,220,155,160,-165,,160,210,-230,,,210,590,SBD
1,Hannu Niemelä,M,1971-01-28,53,Finland,Wraps,M_MCR_3_WPC,81.9,82.5,-160,-160,160,,160,120,-125,-125,,120,190,197.5,-205,,197.5,477.5,SBD
1,Ari Kortetjärvi,M,1970-08-28,53,Finland,Wraps,M_MCR_3_WPC,89.5,90,225,250,260,,260,160,170,,,170,-250,250,270,,270,700,SBD
2,Petri Paatelainen,M,1971-01-04,53,Finland,Wraps,M_MCR_3_WPC,89.5,90,175,190,200,,200,110,115,117.5,,117.5,170,182.5,-200,,182.5,500,SBD
3,Valeri Astaptsev,M,1973-02-02,51,Finland,Wraps,M_MCR_3_WPC,88.9,90,150,160,165,,165,100,105,-107.5,,105,190,200,207.5,,207.5,477.5,SBD
DQ,Mika Haapala,M,1973-12-11,50,Finland,Wraps,M_MCR_3_WPC,99.7,100,205,-210,-210,,205,-130,-130,-130,,,,,,,,,SBD
1,Rami Eerikäinen,M,1973-11-28,50,Finland,Wraps,M_MCR_3_WPC,108.6,110,190,-210,210,,210,135,145,,,145,205,225,-245,,225,580,SBD
1,Petri Lindholm,M,1970-08-19,53,Finland,Wraps,M_MCR_3_WPC,132,140,300,330,,,330,170,185,,,185,270,-290,-290,,270,785,SBD
1,Aki Vuorio,M,1964-05-20,59,Finland,Wraps,M_MCR_4_WPC,107.2,110,170,180,-190,,180,70,,,,70,180,190,200,,200,450,SBD
1,Raimo Hiisiö,M,1968-12-18,55,Finland,Wraps,M_MCR_4_WPC,123.6,125,150,,,,150,175,185,190,,190,230,250,275.5,,275.5,615.5,SBD
1,Asko Kajanoja,M,1961-03-31,62,Finland,Wraps,M_MCR_5_WPC,89.7,90,180,200,210,,210,122.5,130,-132.5,,130,222.5,242.5,-262.5,,242.5,582.5,SBD
1,Vilho Määttä,M,1952-08-05,71,Finland,Sleeves,M_MCR_7_WPC,80.3,82.5,90,100,110,,110,85,90,,,90,150,160,165,,165,365,SBD
1,Raimo Lehtimäki,M,1949-12-08,74,Finland,Wraps,M_MCR_7_WPC,97.1,100,145,152.5,160,,160,75,80,85,,85,185,192.5,200,,200,445,SBD
1,Elmeri Töyry,M,1998-01-30,26,Finland,Wraps,M_OCR_WPC,67.4,67.5,230,-250,250,,250,112.5,120,-125,,120,230,-247.5,-247.5,,230,600,SBD
1,Sami Vaskelainen,M,1984-05-12,39,Finland,Wraps,M_OCR_WPC,74.1,75,240,250,253,,253,135,-140,140,,140,265,275,280,285.5,280,673,SBD
2,Jukka-Pekka Kytölä,M,1984-09-30,39,Finland,Wraps,M_OCR_WPC,74.5,75,230,-245,,,230,140,-145,,,140,260,280,-300,,280,650,SBD
1,Emil Karjalainen,M,1999-03-14,25,Finland,Wraps,M_OCR_WPC,82.1,82.5,-260,260,295,,295,162.5,172.5,-182.5,,172.5,260,275,-290,,275,742.5,SBD
2,Leevi Sieppi,M,2001-05-02,22,Finland,Wraps,M_OCR_WPC,81.4,82.5,215,-235,235,,235,125,135,145,,145,210,225,240,,240,620,SBD
3,Atte Sumén,M,1994-01-10,30,Finland,Sleeves,M_OCR_WPC,81.9,82.5,160,172.5,182.5,,182.5,120,130,-135,,130,195,212.5,-225,,212.5,525,SBD
1,Joni Laiho,M,1993-04-09,30,Finland,Wraps,M_OCR_WPC,88.8,90,255,267.5,275,,275,165,175,-187.5,,175,255,-265,270,,270,720,SBD
DQ,Harri Vakkinen-Huhta,M,1984-09-08,39,Finland,Wraps,M_OCR_WPC,88.7,90,-340,-340,-340,,,,,,,,,,,,,,SBD
DQ,Mikael Kumlander,M,1983-01-21,41,Finland,Wraps,M_OCR_WPC,89.7,90,255,-270,,,255,-140,,,,,,,,,,,SBD
G,Raul Kivine,M,1983-09-16,40,,Wraps,M_OCR_WPC,89.1,90,240,260,-267.5,,260,140,150,155,,155,260,280,-300,,280,695,SBD
1,Joona Leppäjärvi,M,1995-08-19,28,Finland,Wraps,M_OCR_WPC,99.5,100,265,285,-290,,285,170,180,187.5,,187.5,-275,282.5,-300,,282.5,755,SBD
2,Kalle Lahti,M,1985-04-25,38,Finland,Wraps,M_OCR_WPC,99.2,100,230,242.5,250,,250,-150,155,160,,160,270,-280,,,270,680,SBD
3,Henry Hyytiäinen,M,1999-03-29,24,Finland,Wraps,M_OCR_WPC,99.9,100,-260,260,-280,,260,125,132.5,-140,,132.5,250,270,-280,,270,662.5,SBD
4,Tero Manner,M,1980-08-24,43,Finland,Wraps,M_OCR_WPC,98.8,100,-190,190,-212.5,,190,115,-122.5,-122.5,,115,200,220,-230,,220,525,SBD
1,Jari Koskinen,M,1982-09-05,41,Finland,Wraps,M_OCR_WPC,109.8,110,285,305,315,,315,195,210,217.5,,217.5,285,305,317.5,325,317.5,850,SBD
2,Dennis Riihimäki,M,1983-09-14,40,Finland,Wraps,M_OCR_WPC,109.2,110,-290,-290,310,,310,175,180,185,,185,300,315,,,315,810,SBD
DQ,Hannu Österman,M,1998-08-25,25,Finland,Raw,M_OCR_WPC,108,110,300,315,330,-340,330,150,160,167.5,,167.5,-300,-300,-300,,,,SBD
1,Anthony Singh #1,M,2001-01-26,23,Finland,Wraps,M_OCR_WPC,122.9,125,315,330,350,-365,350,180,190,200,,200,300,330,350,,350,900,SBD
2,Miika Örad,M,1985-04-16,38,Finland,Wraps,M_OCR_WPC,125,125,320,-340,-360,,320,220,230,-240,,230,315,325,-335,,325,875,SBD
3,Jussi Valkama,M,1981-05-26,42,Finland,Wraps,M_OCR_WPC,115.1,125,305,330,340,,340,192.5,200,-205,,200,300,325,-332.5,,325,865,SBD
4,Jani Varha,M,1992-09-24,31,Finland,Wraps,M_OCR_WPC,116.8,125,295,310,317.5,,317.5,-190,200,207.5,,207.5,310,325,332.5,,332.5,857.5,SBD
5,Ville Suominen,M,1982-07-01,41,Finland,Wraps,M_OCR_WPC,122.9,125,330,-345,345.5,,345.5,170,-180,-180,,170,300,-337.5,,,300,815.5,SBD
6,Jan-Erik Maantila,M,1985-06-24,38,Finland,Wraps,M_OCR_WPC,121.1,125,285,305,-320,,305,205,215,222.5,,222.5,252.5,275,-280,,275,802.5,SBD
1,Petri Lindholm,M,1970-08-19,53,Finland,Wraps,M_OCR_WPC,132,140,300,330,,,330,170,185,,,185,270,-290,-290,,270,785,SBD
2,Tero Soini,M,1985-12-28,38,Finland,Wraps,M_OCR_WPC,128.5,140,220,230,235,,235,145,155,160,,160,245,260,-272.5,,260,655,SBD
3,Tuomas Uotila,M,1996-06-10,27,Finland,Wraps,M_OCR_WPC,126.7,140,230,240,-250,,240,140,150,-155,,150,220,-235,240,,240,630,SBD
4,Seppo Honkanen,M,1987-10-06,36,Finland,Wraps,M_OCR_WPC,135.4,140,-235,235,-255,,235,140,155,-160,,155,220,240,-255,,240,630,SBD
1,Miika Pesonen,M,2009-05-20,14,Finland,Sleeves,M_TCR_1_WPC,51.6,52,80,90,-100,,90,40,-45,,,40,110,125,135,,135,265,SBD
G,Artem Turkotenko,M,2008-08-01,15,,Wraps,M_TCR_1_WPC,51.3,52,90,-100,-100,,90,50,55,-61,,55,100,110,120,,120,265,SBD
1,Osku Laitinen,M,2010-07-16,13,Finland,Sleeves,M_TCR_1_WPC,53.7,56,60,70,75,,75,-40,50,55,,55,120,130,140,,140,270,SBD
1,Axel Annunen,M,2008-05-28,15,Finland,Sleeves,M_TCR_1_WPC,74.2,75,120,130,135,,135,90,-100,100,,100,130,140,150,,150,385,SBD
1,Matti Huotari,M,2008-08-13,15,Finland,Wraps,M_TCR_1_WPC,87,90,120,127.5,135,,135,-75,77.5,80,,80,145,157.5,170,,170,385,SBD
DQ,Joel Burtsoff,M,2006-10-17,17,Finland,Sleeves,M_TCR_2_WPC,72.9,75,140,150,-160,,150,-95,-105,-105,,,,,,,,,SBD
G,Oleksander Kyryliuk,M,2008-03-12,16,,Wraps,M_TCR_2_WPC,79.3,82.5,-165,165,170,,170,85,92.5,-100,,92.5,185,-200,-200,,185,447.5,SBD
G,Petya Zabunov,M,2006-06-24,17,,Wraps,M_TCR_2_WPC,88.4,90,150,155,-160,,155,115,120,-125,,120,170,180,185,,185,460,SBD
1,Aaron Wiman,M,2006-10-07,17,Finland,Wraps,M_TCR_2_WPC,99.4,100,205,215,227.5,,227.5,120,132.5,140,,140,215,232.5,-242.5,,232.5,600,SBD
2,Visa Hakkarainen,M,2008-03-20,16,Finland,Wraps,M_TCR_2_WPC,98.6,100,190,195,200,,200,105,115,120,,120,-210,-210,212.5,,212.5,532.5,SBD
1,Eero Mitronen,M,2005-03-13,19,Finland,Wraps,M_TCR_3_WPC,82.4,82.5,170,-185,190,,190,110,120,130,-135,130,180,195,210,,210,530,SBD
1,Joonas Asikainen,M,2000-07-30,23,Finland,Multi-ply,M_JEM_WPC,102.1,110,250,270,285,,285,200,210,220,,220,195,215,235,,235,740,SBD
DQ,Nicky Norris,M,,,Finland,Multi-ply,M_OEM_WPC,86.2,90,-275,-275,-275,,,,,,,,,,,,,,SBD
1,Marko Hyytinen,M,1986-06-13,37,Finland,Multi-ply,M_OEM_WPC,99.6,100,290,-305,310,,310,205,-215,-220,,205,220,235,250,,250,765,SBD
2,Antero Bergh,M,1987-06-12,36,Finland,Multi-ply,M_OEM_WPC,97.3,100,-225,225,-232.5,,225,160,170,180,,180,225,240,-250,,240,645,SBD
1,Velimatti Karhu,M,1971-08-12,52,Finland,Multi-ply,M_OEM_WPC,108,110,-330.5,-330.5,330.5,,330.5,190,205,220,,220,220,235,-250,,235,785.5,SBD
2,Henri Kotkansalo,M,1996-11-10,27,Finland,Multi-ply,M_OEM_WPC,109.2,110,-230,240,-275,,240,150,162.5,175,,175,240,-270,-270,,240,655,SBD
1,Ville Pulli,M,1989-07-07,34,Finland,Multi-ply,M_OEM_WPC,116.6,125,-290,310,330,,330,200,220,240,,240,-285,285,-305,,285,855,SBD
1,Aleksi Halminen,M,1996-09-27,27,Finland,Single-ply,M_OES_WPC,99.2,100,240,270,280,,280,150,160,-165,,160,250,280,-290,,280,720,SBD
1,Johan Frisk,M,1991-09-26,32,Finland,Single-ply,M_OES_WPC,105.2,110,-330,365,-400.5,,365,100,200,-245,,200,-310,-310,310,,310,875,SBD
1,Miika Pesonen,M,2009-05-20,14,Finland,Single-ply,M_TES_1_WPC,52.6,56,100,115,-125,,115,45,-50,-50,,45,120,130,140,-150,140,300,SBD
